Administrator
- ???? Create Student & Instructor 
???????????????????? Tab Account Information ??? Tab Personal Information 

-???? Profile Account ?????????? Change Address ??????????? "Lorem ..."
bEll 
belL
BELl
BELL
